C:\Users\Toshiba\IdeaProjects\carlook\carlook\src\main\java\org\bonn\gui\views\MainView.java
C:\Users\Toshiba\IdeaProjects\carlook\carlook\src\main\java\org\bonn\model\entities\AbstractEntity.java
C:\Users\Toshiba\IdeaProjects\carlook\carlook\src\main\java\org\bonn\gui\views\LandingPage.java
C:\Users\Toshiba\IdeaProjects\carlook\carlook\src\main\java\org\bonn\model\dto\AutoDTO.java
C:\Users\Toshiba\IdeaProjects\carlook\carlook\src\main\java\org\bonn\model\entities\Auto.java
C:\Users\Toshiba\IdeaProjects\carlook\carlook\src\main\java\org\bonn\MyUI.java
